{
  "project_info": {
    "project_number": "6332084289",
    "project_id": "map-invader",
    "storage_bucket": "map-invader.appspot.com"
  },
  "client": [
    {
      "client_info": {
        "mobilesdk_app_id": "1:6332084289:android:becf09b03f9ab37d1c16c0",
        "android_client_info": {
          "package_name": "com.example.mapinvader"
        }
      },
      "oauth_client": [
        {
          "client_id": "6332084289-kg3fmmhv8nd24vtnosaq7a9l0flflfar.apps.googleusercontent.com",
          "client_type": 3
        }
      ],
      "api_key": [
        {
          "current_key": "AIzaSyCpKGLpggTWi2Kmg7iBwGDmHAyY-hs2_OY"
        }
      ],
      "services": {
        "appinvite_service": {
          "other_platform_oauth_client": [
            {
              "client_id": "6332084289-kg3fmmhv8nd24vtnosaq7a9l0flflfar.apps.googleusercontent.com",
              "client_type": 3
            }
          ]
        }
      }
    }
  ],
  "configuration_version": "1"
}